%YAML 1.1
%TAG !u! tag:unity3d.com,2011:
--- !u!29 &1
OcclusionCullingSettings:
  m_ObjectHideFlags: 0
  serializedVersion: 2
  m_OcclusionBakeSettings:
    smallestOccluder: 5
    smallestHole: 0.25
    backfaceThreshold: 100
  m_SceneGUID: 00000000000000000000000000000000
  m_OcclusionCullingData: {fileID: 0}
--- !u!104 &2
RenderSettings:
  m_ObjectHideFlags: 0
  serializedVersion: 9
  m_Fog: 0
  m_FogColor: {r: 0.5, g: 0.5, b: 0.5, a: 1}
  m_FogMode: 3
  m_FogDensity: 0.01
  m_LinearFogStart: 0
  m_LinearFogEnd: 300
  m_AmbientSkyColor: {r: 0.212, g: 0.227, b: 0.259, a: 1}
  m_AmbientEquatorColor: {r: 0.114, g: 0.125, b: 0.133, a: 1}
  m_AmbientGroundColor: {r: 0.047, g: 0.043, b: 0.035, a: 1}
  m_AmbientIntensity: 1
  m_AmbientMode: 3
  m_SubtractiveShadowColor: {r: 0.42, g: 0.478, b: 0.627, a: 1}
  m_SkyboxMaterial: {fileID: 0}
  m_HaloStrength: 0.5
  m_FlareStrength: 1
  m_FlareFadeSpeed: 3
  m_HaloTexture: {fileID: 0}
  m_SpotCookie: {fileID: 10001, guid: 0000000000000000e000000000000000, type: 0}
  m_DefaultReflectionMode: 0
  m_DefaultReflectionResolution: 128
  m_ReflectionBounces: 1
  m_ReflectionIntensity: 1
  m_CustomReflection: {fileID: 0}
  m_Sun: {fileID: 0}
  m_IndirectSpecularColor: {r: 0, g: 0, b: 0, a: 1}
  m_UseRadianceAmbientProbe: 0
--- !u!157 &3
LightmapSettings:
  m_ObjectHideFlags: 0
  serializedVersion: 11
  m_GIWorkflowMode: 1
  m_GISettings:
    serializedVersion: 2
    m_BounceScale: 1
    m_IndirectOutputScale: 1
    m_AlbedoBoost: 1
    m_EnvironmentLightingMode: 0
    m_EnableBakedLightmaps: 0
    m_EnableRealtimeLightmaps: 0
  m_LightmapEditorSettings:
    serializedVersion: 12
    m_Resolution: 2
    m_BakeResolution: 40
    m_AtlasSize: 1024
    m_AO: 0
    m_AOMaxDistance: 1
    m_CompAOExponent: 1
    m_CompAOExponentDirect: 0
    m_ExtractAmbientOcclusion: 0
    m_Padding: 2
    m_LightmapParameters: {fileID: 0}
    m_LightmapsBakeMode: 1
    m_TextureCompression: 1
    m_FinalGather: 0
    m_FinalGatherFiltering: 1
    m_FinalGatherRayCount: 256
    m_ReflectionCompression: 2
    m_MixedBakeMode: 2
    m_BakeBackend: 1
    m_PVRSampling: 1
    m_PVRDirectSampleCount: 32
    m_PVRSampleCount: 512
    m_PVRBounces: 2
    m_PVREnvironmentSampleCount: 256
    m_PVREnvironmentReferencePointCount: 2048
    m_PVRFilteringMode: 1
    m_PVRDenoiserTypeDirect: 1
    m_PVRDenoiserTypeIndirect: 1
    m_PVRDenoiserTypeAO: 1
    m_PVRFilterTypeDirect: 0
    m_PVRFilterTypeIndirect: 0
    m_PVRFilterTypeAO: 0
    m_PVREnvironmentMIS: 1
    m_PVRCulling: 1
    m_PVRFilteringGaussRadiusDirect: 1
    m_PVRFilteringGaussRadiusIndirect: 5
    m_PVRFilteringGaussRadiusAO: 2
    m_PVRFilteringAtrousPositionSigmaDirect: 0.5
    m_PVRFilteringAtrousPositionSigmaIndirect: 2
    m_PVRFilteringAtrousPositionSigmaAO: 1
    m_ShowResolutionOverlay: 1
    m_ExportTrainingData: 0
  m_LightingDataAsset: {fileID: 0}
  m_UseShadowmask: 1
--- !u!196 &4
NavMeshSettings:
  serializedVersion: 2
  m_ObjectHideFlags: 0
  m_BuildSettings:
    serializedVersion: 2
    agentTypeID: 0
    agentRadius: 0.5
    agentHeight: 2
    agentSlope: 45
    agentClimb: 0.4
    ledgeDropHeight: 0
    maxJumpAcrossDistance: 0
    minRegionArea: 2
    manualCellSize: 0
    cellSize: 0.16666667
    manualTileSize: 0
    tileSize: 256
    accuratePlacement: 0
    debug:
      m_Flags: 0
  m_NavMeshData: {fileID: 0}
--- !u!1 &96384248
GameObject:
  m_ObjectHideFlags: 0
  m_CorrespondingSourceObject: {fileID: 0}
  m_PrefabInstance: {fileID: 0}
  m_PrefabAsset: {fileID: 0}
  serializedVersion: 6
  m_Component:
  - component: {fileID: 96384250}
  - component: {fileID: 96384249}
  m_Layer: 0
  m_Name: Spawner (5)
  m_TagString: Untagged
  m_Icon: {fileID: 0}
  m_NavMeshLayer: 0
  m_StaticEditorFlags: 0
  m_IsActive: 1
--- !u!114 &96384249
MonoBehaviour:
  m_ObjectHideFlags: 0
  m_CorrespondingSourceObject: {fileID: 0}
  m_PrefabInstance: {fileID: 0}
  m_PrefabAsset: {fileID: 0}
  m_GameObject: {fileID: 96384248}
  m_Enabled: 1
  m_EditorHideFlags: 0
  m_Script: {fileID: 11500000, guid: fe71bb884d0b7b943a3338c5128d5d94, type: 3}
  m_Name: 
  m_EditorClassIdentifier: 
  enemigo: {fileID: 3129681329493393210, guid: 649e325e745b4e24ca5c0c7a9a709c84, type: 3}
  speed: 0
--- !u!4 &96384250
Transform:
  m_ObjectHideFlags: 0
  m_CorrespondingSourceObject: {fileID: 0}
  m_PrefabInstance: {fileID: 0}
  m_PrefabAsset: {fileID: 0}
  m_GameObject: {fileID: 96384248}
  m_LocalRotation: {x: 0, y: 0, z: 0, w: 1}
  m_LocalPosition: {x: 10.88, y: 0.01, z: -4.469315}
  m_LocalScale: {x: 1, y: 1, z: 1}
  m_Children: []
  m_Father: {fileID: 0}
  m_RootOrder: 5
  m_LocalEulerAnglesHint: {x: 0, y: 0, z: 0}
--- !u!1001 &273806541
PrefabInstance:
  m_ObjectHideFlags: 0
  serializedVersion: 2
  m_Modification:
    m_TransformParent: {fileID: 0}
    m_Modifications:
    - target: {fileID: 3351075244918900177, guid: 40ecd01c0250da24c8ae3157feafe0fa,
        type: 3}
      propertyPath: m_Name
      value: MagoRoca
      objectReference: {fileID: 0}
    - target: {fileID: 3351075244918900180, guid: 40ecd01c0250da24c8ae3157feafe0fa,
        type: 3}
      propertyPath: m_LocalPosition.x
      value: -10.22
      objectReference: {fileID: 0}
    - target: {fileID: 3351075244918900180, guid: 40ecd01c0250da24c8ae3157feafe0fa,
        type: 3}
      propertyPath: m_LocalPosition.y
      value: -1.88
      objectReference: {fileID: 0}
    - target: {fileID: 3351075244918900180, guid: 40ecd01c0250da24c8ae3157feafe0fa,
        type: 3}
      propertyPath: m_LocalPosition.z
      value: 0
      objectReference: {fileID: 0}
    - target: {fileID: 3351075244918900180, guid: 40ecd01c0250da24c8ae3157feafe0fa,
        type: 3}
      propertyPath: m_LocalRotation.x
      value: 0
      objectReference: {fileID: 0}
    - target: {fileID: 3351075244918900180, guid: 40ecd01c0250da24c8ae3157feafe0fa,
        type: 3}
      propertyPath: m_LocalRotation.y
      value: 0
      objectReference: {fileID: 0}
    - target: {fileID: 3351075244918900180, guid: 40ecd01c0250da24c8ae3157feafe0fa,
        type: 3}
      propertyPath: m_LocalRotation.z
      value: 0
      objectReference: {fileID: 0}
    - target: {fileID: 3351075244918900180, guid: 40ecd01c0250da24c8ae3157feafe0fa,
        type: 3}
      propertyPath: m_LocalRotation.w
      value: 1
      objectReference: {fileID: 0}
    - target: {fileID: 3351075244918900180, guid: 40ecd01c0250da24c8ae3157feafe0fa,
        type: 3}
      propertyPath: m_RootOrder
      value: 1
      objectReference: {fileID: 0}
    - target: {fileID: 3351075244918900180, guid: 40ecd01c0250da24c8ae3157feafe0fa,
        type: 3}
      propertyPath: m_LocalEulerAnglesHint.x
      value: 0
      objectReference: {fileID: 0}
    - target: {fileID: 3351075244918900180, guid: 40ecd01c0250da24c8ae3157feafe0fa,
        type: 3}
      propertyPath: m_LocalEulerAnglesHint.y
      value: 0
      objectReference: {fileID: 0}
    - target: {fileID: 3351075244918900180, guid: 40ecd01c0250da24c8ae3157feafe0fa,
        type: 3}
      propertyPath: m_LocalEulerAnglesHint.z
      value: 0
      objectReference: {fileID: 0}
    m_RemovedComponents: []
  m_SourcePrefab: {fileID: 100100000, guid: 40ecd01c0250da24c8ae3157feafe0fa, type: 3}
--- !u!1 &1005995933
GameObject:
  m_ObjectHideFlags: 0
  m_CorrespondingSourceObject: {fileID: 0}
  m_PrefabInstance: {fileID: 0}
  m_PrefabAsset: {fileID: 0}
  serializedVersion: 6
  m_Component:
  - component: {fileID: 1005995935}
  - component: {fileID: 1005995934}
  m_Layer: 0
  m_Name: Spawner (4)
  m_TagString: Untagged
  m_Icon: {fileID: 0}
  m_NavMeshLayer: 0
  m_StaticEditorFlags: 0
  m_IsActive: 1
--- !u!114 &1005995934
MonoBehaviour:
  m_ObjectHideFlags: 0
  m_CorrespondingSourceObject: {fileID: 0}
  m_PrefabInstance: {fileID: 0}
  m_PrefabAsset: {fileID: 0}
  m_GameObject: {fileID: 1005995933}
  m_Enabled: 1
  m_EditorHideFlags: 0
  m_Script: {fileID: 11500000, guid: fe71bb884d0b7b943a3338c5128d5d94, type: 3}
  m_Name: 
  m_EditorClassIdentifier: 
  enemigo: {fileID: 3129681329493393210, guid: 649e325e745b4e24ca5c0c7a9a709c84, type: 3}
  speed: 0
--- !u!4 &1005995935
Transform:
  m_ObjectHideFlags: 0
  m_CorrespondingSourceObject: {fileID: 0}
  m_PrefabInstance: {fileID: 0}
  m_PrefabAsset: {fileID: 0}
  m_GameObject: {fileID: 1005995933}
  m_LocalRotation: {x: 0, y: 0, z: 0, w: 1}
  m_LocalPosition: {x: 10.8, y: -3.66, z: -4.469315}
  m_LocalScale: {x: 1, y: 1, z: 1}
  m_Children: []
  m_Father: {fileID: 0}
  m_RootOrder: 4
  m_LocalEulerAnglesHint: {x: 0, y: 0, z: 0}
--- !u!1 &1022325803
GameObject:
  m_ObjectHideFlags: 0
  m_CorrespondingSourceObject: {fileID: 0}
  m_PrefabInstance: {fileID: 0}
  m_PrefabAsset: {fileID: 0}
  serializedVersion: 6
  m_Component:
  - component: {fileID: 1022325806}
  - component: {fileID: 1022325805}
  - component: {fileID: 1022325804}
  m_Layer: 0
  m_Name: Main Camera
  m_TagString: MainCamera
  m_Icon: {fileID: 0}
  m_NavMeshLayer: 0
  m_StaticEditorFlags: 0
  m_IsActive: 1
--- !u!81 &1022325804
AudioListener:
  m_ObjectHideFlags: 0
  m_CorrespondingSourceObject: {fileID: 0}
  m_PrefabInstance: {fileID: 0}
  m_PrefabAsset: {fileID: 0}
  m_GameObject: {fileID: 1022325803}
  m_Enabled: 1
--- !u!20 &1022325805
Camera:
  m_ObjectHideFlags: 0
  m_CorrespondingSourceObject: {fileID: 0}
  m_PrefabInstance: {fileID: 0}
  m_PrefabAsset: {fileID: 0}
  m_GameObject: {fileID: 1022325803}
  m_Enabled: 1
  serializedVersion: 2
  m_ClearFlags: 1
  m_BackGroundColor: {r: 0.19215687, g: 0.3019608, b: 0.4745098, a: 0}
  m_projectionMatrixMode: 1
  m_GateFitMode: 2
  m_FOVAxisMode: 0
  m_SensorSize: {x: 36, y: 24}
  m_LensShift: {x: 0, y: 0}
  m_FocalLength: 50
  m_NormalizedViewPortRect:
    serializedVersion: 2
    x: 0
    y: 0
    width: 1
    height: 1
  near clip plane: 0.3
  far clip plane: 1000
  field of view: 60
  orthographic: 1
  orthographic size: 6.1178064
  m_Depth: -1
  m_CullingMask:
    serializedVersion: 2
    m_Bits: 4294967295
  m_RenderingPath: -1
  m_TargetTexture: {fileID: 0}
  m_TargetDisplay: 0
  m_TargetEye: 3
  m_HDR: 1
  m_AllowMSAA: 1
  m_AllowDynamicResolution: 0
  m_ForceIntoRT: 0
  m_OcclusionCulling: 1
  m_StereoConvergence: 10
  m_StereoSeparation: 0.022
--- !u!4 &1022325806
Transform:
  m_ObjectHideFlags: 0
  m_CorrespondingSourceObject: {fileID: 0}
  m_PrefabInstance: {fileID: 0}
  m_PrefabAsset: {fileID: 0}
  m_GameObject: {fileID: 1022325803}
  m_LocalRotation: {x: -0, y: -0, z: -0, w: 1}
  m_LocalPosition: {x: -0.39413416, y: -0.26142517, z: -51.263638}
  m_LocalScale: {x: 1, y: 1, z: 1}
  m_Children: []
  m_Father: {fileID: 0}
  m_RootOrder: 0
  m_LocalEulerAnglesHint: {x: 0, y: 0, z: 0}
--- !u!1001 &1525342632
PrefabInstance:
  m_ObjectHideFlags: 0
  serializedVersion: 2
  m_Modification:
    m_TransformParent: {fileID: 0}
    m_Modifications:
    - target: {fileID: 3351075244918900177, guid: 470b9d67fb9d58c4bb51ecf77d02b48a,
        type: 3}
      propertyPath: m_Name
      value: MagoAgua
      objectReference: {fileID: 0}
    - target: {fileID: 3351075244918900180, guid: 470b9d67fb9d58c4bb51ecf77d02b48a,
        type: 3}
      propertyPath: m_LocalPosition.x
      value: -10.205429
      objectReference: {fileID: 0}
    - target: {fileID: 3351075244918900180, guid: 470b9d67fb9d58c4bb51ecf77d02b48a,
        type: 3}
      propertyPath: m_LocalPosition.y
      value: -0.07
      objectReference: {fileID: 0}
    - target: {fileID: 3351075244918900180, guid: 470b9d67fb9d58c4bb51ecf77d02b48a,
        type: 3}
      propertyPath: m_LocalPosition.z
      value: 0
      objectReference: {fileID: 0}
    - target: {fileID: 3351075244918900180, guid: 470b9d67fb9d58c4bb51ecf77d02b48a,
        type: 3}
      propertyPath: m_LocalRotation.x
      value: 0
      objectReference: {fileID: 0}
    - target: {fileID: 3351075244918900180, guid: 470b9d67fb9d58c4bb51ecf77d02b48a,
        type: 3}
      propertyPath: m_LocalRotation.y
      value: 0
      objectReference: {fileID: 0}
    - target: {fileID: 3351075244918900180, guid: 470b9d67fb9d58c4bb51ecf77d02b48a,
        type: 3}
      propertyPath: m_LocalRotation.z
      value: 0
      objectReference: {fileID: 0}
    - target: {fileID: 3351075244918900180, guid: 470b9d67fb9d58c4bb51ecf77d02b48a,
        type: 3}
      propertyPath: m_LocalRotation.w
      value: 1
      objectReference: {fileID: 0}
    - target: {fileID: 3351075244918900180, guid: 470b9d67fb9d58c4bb51ecf77d02b48a,
        type: 3}
      propertyPath: m_RootOrder
      value: 2
      objectReference: {fileID: 0}
    - target: {fileID: 3351075244918900180, guid: 470b9d67fb9d58c4bb51ecf77d02b48a,
        type: 3}
      propertyPath: m_LocalEulerAnglesHint.x
      value: 0
      objectReference: {fileID: 0}
    - target: {fileID: 3351075244918900180, guid: 470b9d67fb9d58c4bb51ecf77d02b48a,
        type: 3}
      propertyPath: m_LocalEulerAnglesHint.y
      value: 0
      objectReference: {fileID: 0}
    - target: {fileID: 3351075244918900180, guid: 470b9d67fb9d58c4bb51ecf77d02b48a,
        type: 3}
      propertyPath: m_LocalEulerAnglesHint.z
      value: 0
      objectReference: {fileID: 0}
    - target: {fileID: 3351075245742741704, guid: 470b9d67fb9d58c4bb51ecf77d02b48a,
        type: 3}
      propertyPath: bala
      value: 
      objectReference: {fileID: 7357447792796666358, guid: 978fc3e267ca7ac47837c782a91f3776,
        type: 3}
    - target: {fileID: 3351075245742741704, guid: 470b9d67fb9d58c4bb51ecf77d02b48a,
        type: 3}
      propertyPath: velocidad
      value: 
      objectReference: {fileID: -3619792972317332004, guid: 978fc3e267ca7ac47837c782a91f3776,
        type: 3}
    m_RemovedComponents: []
  m_SourcePrefab: {fileID: 100100000, guid: 470b9d67fb9d58c4bb51ecf77d02b48a, type: 3}
--- !u!1 &1702025625 stripped
GameObject:
  m_CorrespondingSourceObject: {fileID: 3351075244918900177, guid: 40ecd01c0250da24c8ae3157feafe0fa,
    type: 3}
  m_PrefabInstance: {fileID: 273806541}
  m_PrefabAsset: {fileID: 0}
--- !u!114 &1702025626
MonoBehaviour:
  m_ObjectHideFlags: 0
  m_CorrespondingSourceObject: {fileID: 0}
  m_PrefabInstance: {fileID: 0}
  m_PrefabAsset: {fileID: 0}
  m_GameObject: {fileID: 1702025625}
  m_Enabled: 1
  m_EditorHideFlags: 0
  m_Script: {fileID: 11500000, guid: f7a45f2740d05364a9aa2d682e3b0760, type: 3}
  m_Name: 
  m_EditorClassIdentifier: 
  velocidad: {fileID: 8075913070960281176, guid: c2695e584a9670d4990195e207c8d8e7,
    type: 3}
  bala: {fileID: 6456739105349981696, guid: c2695e584a9670d4990195e207c8d8e7, type: 3}
--- !u!1001 &8111439801592451620
PrefabInstance:
  m_ObjectHideFlags: 0
  serializedVersion: 2
  m_Modification:
    m_TransformParent: {fileID: 0}
    m_Modifications:
    - target: {fileID: 7395329919184286289, guid: 6c0639ac2e6263046943a75500897878,
        type: 3}
      propertyPath: m_Name
      value: Zona de juego
      objectReference: {fileID: 0}
    - target: {fileID: 7395329919184286290, guid: 6c0639ac2e6263046943a75500897878,
        type: 3}
      propertyPath: m_LocalPosition.x
      value: -4.76
      objectReference: {fileID: 0}
    - target: {fileID: 7395329919184286290, guid: 6c0639ac2e6263046943a75500897878,
        type: 3}
      propertyPath: m_LocalPosition.y
      value: 3.59
      objectReference: {fileID: 0}
    - target: {fileID: 7395329919184286290, guid: 6c0639ac2e6263046943a75500897878,
        type: 3}
      propertyPath: m_LocalPosition.z
      value: 0
      objectReference: {fileID: 0}
    - target: {fileID: 7395329919184286290, guid: 6c0639ac2e6263046943a75500897878,
        type: 3}
      propertyPath: m_LocalRotation.x
      value: -0
      objectReference: {fileID: 0}
    - target: {fileID: 7395329919184286290, guid: 6c0639ac2e6263046943a75500897878,
        type: 3}
      propertyPath: m_LocalRotation.y
      value: -0
      objectReference: {fileID: 0}
    - target: {fileID: 7395329919184286290, guid: 6c0639ac2e6263046943a75500897878,
        type: 3}
      propertyPath: m_LocalRotation.z
      value: -0
      objectReference: {fileID: 0}
    - target: {fileID: 7395329919184286290, guid: 6c0639ac2e6263046943a75500897878,
        type: 3}
      propertyPath: m_LocalRotation.w
      value: 1
      objectReference: {fileID: 0}
    - target: {fileID: 7395329919184286290, guid: 6c0639ac2e6263046943a75500897878,
        type: 3}
      propertyPath: m_RootOrder
      value: 3
      objectReference: {fileID: 0}
    - target: {fileID: 7395329919184286290, guid: 6c0639ac2e6263046943a75500897878,
        type: 3}
      propertyPath: m_LocalEulerAnglesHint.x
      value: 0
      objectReference: {fileID: 0}
    - target: {fileID: 7395329919184286290, guid: 6c0639ac2e6263046943a75500897878,
        type: 3}
      propertyPath: m_LocalEulerAnglesHint.y
      value: 0
      objectReference: {fileID: 0}
    - target: {fileID: 7395329919184286290, guid: 6c0639ac2e6263046943a75500897878,
        type: 3}
      propertyPath: m_LocalEulerAnglesHint.z
      value: 0
      objectReference: {fileID: 0}
    - target: {fileID: 8111439801603921312, guid: 6c0639ac2e6263046943a75500897878,
        type: 3}
      propertyPath: m_LocalPosition.x
      value: 29.309858
      objectReference: {fileID: 0}
    - target: {fileID: 8111439800941474504, guid: 6c0639ac2e6263046943a75500897878,
        type: 3}
      propertyPath: m_LocalPosition.x
      value: 23.4
      objectReference: {fileID: 0}
    - target: {fileID: 8111439801668181491, guid: 6c0639ac2e6263046943a75500897878,
        type: 3}
      propertyPath: m_LocalPosition.x
      value: 17.667439
      objectReference: {fileID: 0}
    - target: {fileID: 8111439801505470378, guid: 6c0639ac2e6263046943a75500897878,
        type: 3}
      propertyPath: m_LocalPosition.x
      value: 46.98034
      objectReference: {fileID: 0}
    - target: {fileID: 8111439799667250408, guid: 6c0639ac2e6263046943a75500897878,
        type: 3}
      propertyPath: m_LocalPosition.x
      value: 41.247772
      objectReference: {fileID: 0}
    - target: {fileID: 8111439799628715638, guid: 6c0639ac2e6263046943a75500897878,
        type: 3}
      propertyPath: m_LocalPosition.x
      value: 35.21972
      objectReference: {fileID: 0}
    - target: {fileID: 8111439800917394038, guid: 6c0639ac2e6263046943a75500897878,
        type: 3}
      propertyPath: m_LocalPosition.x
      value: 29.309858
      objectReference: {fileID: 0}
    - target: {fileID: 8111439800380208447, guid: 6c0639ac2e6263046943a75500897878,
        type: 3}
      propertyPath: m_LocalPosition.x
      value: 23.4
      objectReference: {fileID: 0}
    - target: {fileID: 8111439801013075852, guid: 6c0639ac2e6263046943a75500897878,
        type: 3}
      propertyPath: m_LocalPosition.x
      value: 17.667439
      objectReference: {fileID: 0}
    - target: {fileID: 8111439800593297319, guid: 6c0639ac2e6263046943a75500897878,
        type: 3}
      propertyPath: m_LocalPosition.x
      value: 46.98034
      objectReference: {fileID: 0}
    - target: {fileID: 8111439800345127674, guid: 6c0639ac2e6263046943a75500897878,
        type: 3}
      propertyPath: m_LocalPosition.x
      value: 41.247772
      objectReference: {fileID: 0}
    - target: {fileID: 8111439801225420513, guid: 6c0639ac2e6263046943a75500897878,
        type: 3}
      propertyPath: m_LocalPosition.x
      value: 35.21972
      objectReference: {fileID: 0}
    - target: {fileID: 8111439800771401457, guid: 6c0639ac2e6263046943a75500897878,
        type: 3}
      propertyPath: m_LocalPosition.x
      value: 29.309858
      objectReference: {fileID: 0}
    - target: {fileID: 8111439800129653614, guid: 6c0639ac2e6263046943a75500897878,
        type: 3}
      propertyPath: m_LocalPosition.x
      value: 23.4
      objectReference: {fileID: 0}
    - target: {fileID: 8111439800144886127, guid: 6c0639ac2e6263046943a75500897878,
        type: 3}
      propertyPath: m_LocalPosition.x
      value: 17.667439
      objectReference: {fileID: 0}
    - target: {fileID: 8111439800593978546, guid: 6c0639ac2e6263046943a75500897878,
        type: 3}
      propertyPath: m_LocalPosition.x
      value: 46.98034
      objectReference: {fileID: 0}
    - target: {fileID: 8111439800710232428, guid: 6c0639ac2e6263046943a75500897878,
        type: 3}
      propertyPath: m_LocalPosition.x
      value: 41.247772
      objectReference: {fileID: 0}
    - target: {fileID: 8111439800619659996, guid: 6c0639ac2e6263046943a75500897878,
        type: 3}
      propertyPath: m_LocalPosition.x
      value: 35.21972
      objectReference: {fileID: 0}
    - target: {fileID: 8111439800165495185, guid: 6c0639ac2e6263046943a75500897878,
        type: 3}
      propertyPath: m_LocalPosition.x
      value: 29.309858
      objectReference: {fileID: 0}
    - target: {fileID: 8111439801207833366, guid: 6c0639ac2e6263046943a75500897878,
        type: 3}
      propertyPath: m_LocalPosition.x
      value: 23.4
      objectReference: {fileID: 0}
    - target: {fileID: 8111439801546753882, guid: 6c0639ac2e6263046943a75500897878,
        type: 3}
      propertyPath: m_LocalPosition.x
      value: 17.667439
      objectReference: {fileID: 0}
    - target: {fileID: 8111439800993053591, guid: 6c0639ac2e6263046943a75500897878,
        type: 3}
      propertyPath: m_LocalPosition.x
      value: 41.247772
      objectReference: {fileID: 0}
    - target: {fileID: 8111439799809246185, guid: 6c0639ac2e6263046943a75500897878,
        type: 3}
      propertyPath: m_LocalPosition.x
      value: 46.98034
      objectReference: {fileID: 0}
    - target: {fileID: 8111439800785142239, guid: 6c0639ac2e6263046943a75500897878,
        type: 3}
      propertyPath: m_LocalPosition.x
      value: 35.21972
      objectReference: {fileID: 0}
    - target: {fileID: 8111439800105623541, guid: 6c0639ac2e6263046943a75500897878,
        type: 3}
      propertyPath: m_LocalPosition.x
      value: 46.98034
      objectReference: {fileID: 0}
    - target: {fileID: 8111439801041991106, guid: 6c0639ac2e6263046943a75500897878,
        type: 3}
      propertyPath: m_LocalPosition.x
      value: 41.247772
      objectReference: {fileID: 0}
    - target: {fileID: 8111439801122857110, guid: 6c0639ac2e6263046943a75500897878,
        type: 3}
      propertyPath: m_LocalPosition.x
      value: 35.21972
      objectReference: {fileID: 0}
    - target: {fileID: 8111439801292838228, guid: 6c0639ac2e6263046943a75500897878,
        type: 3}
      propertyPath: m_LocalPosition.x
      value: 29.309858
      objectReference: {fileID: 0}
    - target: {fileID: 8111439800308816052, guid: 6c0639ac2e6263046943a75500897878,
        type: 3}
      propertyPath: m_LocalPosition.x
      value: 23.4
      objectReference: {fileID: 0}
    - target: {fileID: 8111439801468233200, guid: 6c0639ac2e6263046943a75500897878,
        type: 3}
      propertyPath: m_LocalPosition.x
      value: 17.667439
      objectReference: {fileID: 0}
    m_RemovedComponents: []
  m_SourcePrefab: {fileID: 100100000, guid: 6c0639ac2e6263046943a75500897878, type: 3}
